// Jest Snapshot v1, https://goo.gl/fbAQLP

exports[`GamesGrid When header is mounted has the expected html structure when it finished loading 1`] = `
<div
  class="games-grid"
>
  <div
    class="masonry"
  />
</div>
`;

exports[`GamesGrid When header is mounted has the expected html structure when it's loading 1`] = `
<div
  class="games-grid"
>
  <div
    class="loading-text"
  >
    
    Please wait while we fetch the best Nintendo 64 games for you...
  
  </div>
</div>
`;
