// Jest Snapshot v1, https://goo.gl/fbAQLP

exports[`PageHeader When header is mounted has the expected html structure 1`] = `
<div
  class="page-header"
>
  <h1
    class="title"
  >
    Nintendo
    <sup>
      64
    </sup>
  </h1>
</div>
`;
